{
    "status": "success",
    "data": [
        {
            "id": 1,
            "author_name": "Quirinus Quirrell",
            "post_type": "Office",
            "post_subtype": "D.A.D.A. Office",
            "num_posts": 68
        },
        {
            "id": 2,
            "author_name": "Zacharias Smith",
            "post_type": "House",
            "post_subtype": "Hufflepuff",
            "num_posts": 50
        },
        {
            "id": 3,
            "author_name": "Minerva McGonagall",
            "post_type": "Class",
            "post_subtype": "Transfiguration",
            "num_posts": 27
        },
        {
            "id": 4,
            "author_name": "Hermione Granger",
            "post_type": "Group",
            "post_subtype": "S.P.E.W.",
            "num_posts": 15
        },
        {
            "id": 5,
            "author_name": "Remus Lupin",
            "post_type": "Office",
            "post_subtype": "D.A.D.A. Office",
            "num_posts": 98
        },
        {
            "id": 6,
            "author_name": "Horace Slughorn",
            "post_type": "Office",
            "post_subtype": "D.A.D.A. Office",
            "num_posts": 37
        },
        {
            "id": 7,
            "author_name": "Sirius Black",
            "post_type": "House",
            "post_subtype": "Gryffindor",
            "num_posts": 19
        },
        {
            "id": 8,
            "author_name": "Pansy Parkinson",
            "post_type": "House",
            "post_subtype": "Slytherin",
            "num_posts": 18
        },
        {
            "id": 9,
            "author_name": "Susan Bones",
            "post_type": "House",
            "post_subtype": "Ravenclaw",
            "num_posts": 17
        },
        {
            "id": 10,
            "author_name": "Terry Boot",
            "post_type": "Group",
            "post_subtype": "S.P.E.W.",
            "num_posts": 16
        },
        {
            "id": 11,
            "author_name": "Dolores Umbridge",
            "post_type": "Group",
            "post_subtype": "Inquisitorial Squad",
            "num_posts": 2
        },
        {
            "id": 12,
            "author_name": "Filius Flitwick",
            "post_type": "Class",
            "post_subtype": "Charms",
            "num_posts": 18
        },
        {
            "id": 13,
            "author_name": "Frank Bryce",
            "post_type": "Group",
            "post_subtype": "Dueling Club",
            "num_posts": 9
        },
        {
            "id": 14,
            "author_name": "Alecto Carrow",
            "post_type": "Office",
            "post_subtype": "Attendance Office",
            "num_posts": 59
        },
        {
            "id": 15,
            "author_name": "Hannah Abbott",
            "post_type": "House",
            "post_subtype": "Hufflepuff",
            "num_posts": 38
        },
        {
            "id": 16,
            "author_name": "Pomona Sprout",
            "post_type": "Class",
            "post_subtype": "Herbology",
            "num_posts": 41
        },
        {
            "id": 17,
            "author_name": "Cho Chang",
            "post_type": "Group",
            "post_subtype": "Quidditch",
            "num_posts": 10
        },
        {
            "id": 18,
            "author_name": "Penelope Clearwater",
            "post_type": "Office",
            "post_subtype": "Dean's Office",
            "num_posts": 100
        },
        {
            "id": 19,
            "author_name": "Vincent Crabbe",
            "post_type": "Office",
            "post_subtype": "Athletic Office",
            "num_posts": 20
        },
        {
            "id": 20,
            "author_name": "Colin Creevey",
            "post_type": "House",
            "post_subtype": "Gryffindor",
            "num_posts": 19
        },
        {
            "id": 21,
            "author_name": "Theodore Nott",
            "post_type": "House",
            "post_subtype": "Slytherin",
            "num_posts": 18
        },
        {
            "id": 22,
            "author_name": "Dirk Cresswell",
            "post_type": "House",
            "post_subtype": "Ravenclaw",
            "num_posts": 17
        },
        {
            "id": 23,
            "author_name": "Barty Crouch",
            "post_type": "House",
            "post_subtype": "Ravenclaw",
            "num_posts": 16
        },
        {
            "id": 24,
            "author_name": "John Dawlish",
            "post_type": "Group",
            "post_subtype": "Gobstones Club",
            "num_posts": 5
        },
        {
            "id": 25,
            "author_name": "Severus Snape",
            "post_type": "Class",
            "post_subtype": "Potions",
            "num_posts": 10
        },
        {
            "id": 26,
            "author_name": "Percy Weasley",
            "post_type": "Group",
            "post_subtype": "Prefects",
            "num_posts": 9
        },
        {
            "id": 27,
            "author_name": "Rubeus Hagrid",
            "post_type": "Office",
            "post_subtype": "Dean's Office",
            "num_posts": 81
        },
        {
            "id": 28,
            "author_name": "Albus Dumbledore",
            "post_type": "Office",
            "post_subtype": "Headmaster's Office",
            "num_posts": 9
        },
        {
            "id": 29,
            "author_name": "Aurora Sinistra",
            "post_type": "Class",
            "post_subtype": "Astronomy",
            "num_posts": 5
        },
        {
            "id": 30,
            "author_name": "Sybill Trelawney",
            "post_type": "Class",
            "post_subtype": "Divination",
            "num_posts": 29
        }
    ]
}